%YAML 1.1
%TAG !u! tag:unity3d.com,2011:
--- !u!74 &7400000
AnimationClip:
  m_ObjectHideFlags: 0
  m_CorrespondingSourceObject: {fileID: 0}
  m_PrefabInstance: {fileID: 0}
  m_PrefabAsset: {fileID: 0}
  m_Name: descend
  serializedVersion: 6
  m_Legacy: 0
  m_Compressed: 0
  m_UseHighQualityCurve: 1
  m_RotationCurves: []
  m_CompressedRotationCurves: []
  m_EulerCurves: []
  m_PositionCurves: []
  m_ScaleCurves: []
  m_FloatCurves: []
  m_PPtrCurves:
  - curve:
    - time: 0
      value: {fileID: 21300000, guid: 72f93fd22cec64d4abb9ea9ff76d9fe2, type: 3}
    - time: 0.0125
      value: {fileID: 21300000, guid: 9659b93bd5eccd54b93214254b741e7d, type: 3}
    - time: 0.025
      value: {fileID: 21300000, guid: 59bfcbc13f4c7a44f8461b75daaff9df, type: 3}
    - time: 0.0375
      value: {fileID: 21300000, guid: 3c28445739bdaea48963793415043d65, type: 3}
    - time: 0.05
      value: {fileID: 21300000, guid: e753b56977a2a95449095fd74c78f1eb, type: 3}
    - time: 0.0625
      value: {fileID: 21300000, guid: f2de8d0bc78d8cb4ea0df5c6905c548f, type: 3}
    - time: 0.075
      value: {fileID: 21300000, guid: 538e2f640f2adeb4e8d6a13947004000, type: 3}
    - time: 0.0875
      value: {fileID: 21300000, guid: 2add57b5d2d61464fb510f8fed2bd7d2, type: 3}
    - time: 0.1
      value: {fileID: 21300000, guid: b6167db5e7699e746b2885eb8e3912f0, type: 3}
    - time: 0.1125
      value: {fileID: 21300000, guid: 1ff9c03c3ed9b5b408b2f9942530235e, type: 3}
    - time: 0.125
      value: {fileID: 21300000, guid: 44e2ba0fc3b7cd3448b398bfc913c97b, type: 3}
    - time: 0.1375
      value: {fileID: 21300000, guid: ccf83b6cb05fd874b9783900e1416d19, type: 3}
    - time: 0.15
      value: {fileID: 21300000, guid: 4072630b061c5754496f7e17cd6280f0, type: 3}
    - time: 0.1625
      value: {fileID: 21300000, guid: cf71e169db7ec7b4c88a1a5c50cda184, type: 3}
    - time: 0.175
      value: {fileID: 21300000, guid: df2b3b1901b8f974d89e711e36bcddc2, type: 3}
    - time: 0.1875
      value: {fileID: 21300000, guid: 449ce27dfa3609343b5a54c2a1a39029, type: 3}
    - time: 0.2
      value: {fileID: 21300000, guid: 56aeaac476068a24ba4d138f21d7e043, type: 3}
    - time: 0.2125
      value: {fileID: 21300000, guid: 6e96c50a921721745bfaf4d206be158f, type: 3}
    - time: 0.225
      value: {fileID: 21300000, guid: ef5c69b72ae43cb4d961c8a3d9dd9515, type: 3}
    - time: 0.2375
      value: {fileID: 21300000, guid: cd5289d7e70aba94888c9e008b9016ea, type: 3}
    - time: 0.25
      value: {fileID: 21300000, guid: 7f7647c31b6396b468a439dbeec94322, type: 3}
    attribute: m_Sprite
    path: 
    classID: 212
    script: {fileID: 0}
  m_SampleRate: 80
  m_WrapMode: 0
  m_Bounds:
    m_Center: {x: 0, y: 0, z: 0}
    m_Extent: {x: 0, y: 0, z: 0}
  m_ClipBindingConstant:
    genericBindings:
    - serializedVersion: 2
      path: 0
      attribute: 0
      script: {fileID: 0}
      typeID: 212
      customType: 23
      isPPtrCurve: 1
    pptrCurveMapping:
    - {fileID: 21300000, guid: 72f93fd22cec64d4abb9ea9ff76d9fe2, type: 3}
    - {fileID: 21300000, guid: 9659b93bd5eccd54b93214254b741e7d, type: 3}
    - {fileID: 21300000, guid: 59bfcbc13f4c7a44f8461b75daaff9df, type: 3}
    - {fileID: 21300000, guid: 3c28445739bdaea48963793415043d65, type: 3}
    - {fileID: 21300000, guid: e753b56977a2a95449095fd74c78f1eb, type: 3}
    - {fileID: 21300000, guid: f2de8d0bc78d8cb4ea0df5c6905c548f, type: 3}
    - {fileID: 21300000, guid: 538e2f640f2adeb4e8d6a13947004000, type: 3}
    - {fileID: 21300000, guid: 2add57b5d2d61464fb510f8fed2bd7d2, type: 3}
    - {fileID: 21300000, guid: b6167db5e7699e746b2885eb8e3912f0, type: 3}
    - {fileID: 21300000, guid: 1ff9c03c3ed9b5b408b2f9942530235e, type: 3}
    - {fileID: 21300000, guid: 44e2ba0fc3b7cd3448b398bfc913c97b, type: 3}
    - {fileID: 21300000, guid: ccf83b6cb05fd874b9783900e1416d19, type: 3}
    - {fileID: 21300000, guid: 4072630b061c5754496f7e17cd6280f0, type: 3}
    - {fileID: 21300000, guid: cf71e169db7ec7b4c88a1a5c50cda184, type: 3}
    - {fileID: 21300000, guid: df2b3b1901b8f974d89e711e36bcddc2, type: 3}
    - {fileID: 21300000, guid: 449ce27dfa3609343b5a54c2a1a39029, type: 3}
    - {fileID: 21300000, guid: 56aeaac476068a24ba4d138f21d7e043, type: 3}
    - {fileID: 21300000, guid: 6e96c50a921721745bfaf4d206be158f, type: 3}
    - {fileID: 21300000, guid: ef5c69b72ae43cb4d961c8a3d9dd9515, type: 3}
    - {fileID: 21300000, guid: cd5289d7e70aba94888c9e008b9016ea, type: 3}
    - {fileID: 21300000, guid: 7f7647c31b6396b468a439dbeec94322, type: 3}
  m_AnimationClipSettings:
    serializedVersion: 2
    m_AdditiveReferencePoseClip: {fileID: 0}
    m_AdditiveReferencePoseTime: 0
    m_StartTime: 0
    m_StopTime: 0.2625
    m_OrientationOffsetY: 0
    m_Level: 0
    m_CycleOffset: 0
    m_HasAdditiveReferencePose: 0
    m_LoopTime: 1
    m_LoopBlend: 0
    m_LoopBlendOrientation: 0
    m_LoopBlendPositionY: 0
    m_LoopBlendPositionXZ: 0
    m_KeepOriginalOrientation: 0
    m_KeepOriginalPositionY: 1
    m_KeepOriginalPositionXZ: 0
    m_HeightFromFeet: 0
    m_Mirror: 0
  m_EditorCurves: []
  m_EulerEditorCurves: []
  m_HasGenericRootTransform: 0
  m_HasMotionFloatCurves: 0
  m_Events: []
